{
  "areas": {
    "input": {
      "inputs_header": "Input",
      "id": "input",
      "col_class": "col-sm-3"
    },
    "display": {
      "inputs_header": "Image",
      "id": "image",
      "col_class": "col-sm-6",
      "body_class": "text-center"
    },
    "output": {
      "inputs_header": "Result",
      "id": "output",
      "col_class": "col-sm-3"
    }
  },
  "attributes": {
    "0": {
      "tagName": "INPUT",
      "type": "radio",
      "className": "form-check-input",
      "name": "read_user_radio",
      "subInputs": [
        {
          "id": "read_user_radio_allow",
          "value": 1,
          "label": {
            "text": "Allow",
            "className": "form-check-label",
            "isBold": 0
          }
        },
        {
          "id": "read_user_radio_deny",
          "value": 0,
          "label": {
            "text": "Deny",
            "className": "form-check-label",
            "isBold": 0
          }
        }
      ],
      "mainLabel": {
        "text": "Read permission",
        "isBold": 1
      },
      "subLabel": {
        "text": "User/Owner",
        "isBold": 0
      }

    },
    "1": {
      "tagName": "INPUT",
      "type": "radio",
      "className": "form-check-input",
      "name": "read_group_radio",
      "subInputs": [
        {
          "id": "read_group_radio_allow",
          "value": 1,
          "label": {
            "text": "Allow",
            "className": "form-check-label",
            "isBold": 0
          }
        },
        {
          "id": "read_group_radio_deny",
          "value": 0,
          "label": {
            "text": "Deny",
            "className": "form-check-label",
            "isBold": 0
          }
        }
      ],
      "subLabel": {
        "text": "Group",
        "isBold": 0
      }
    },
    "2": {
      "tagName": "INPUT",
      "type": "radio",
      "className": "form-check-input",
      "name": "read_other_radio",
      "subInputs": [
        {
          "id": "read_other_radio_allow",
          "value": 1,
          "label": {
            "text": "Allow",
            "className": "form-check-label",
            "isBold": 0
          }
        },
        {
          "id": "read_other_radio_deny",
          "value": 0,
          "label": {
            "text": "Deny",
            "className": "form-check-label",
            "isBold": 0
          }
        }
      ],
      "subLabel": {
        "text": "Other",
        "isBold": 0
      }
    },
    "3": {
      "tagName": "INPUT",
      "type": "radio",
      "className": "form-check-input",
      "name": "write_user_radio",
      "subInputs": [
        {
          "id": "write_user_radio_allow",
          "value": 1,
          "label": {
            "text": "Allow",
            "className": "form-check-label",
            "isBold": 0
          }
        },
        {
          "id": "write_user_radio_deny",
          "value": 0,
          "label": {
            "text": "Deny",
            "className": "form-check-label",
            "isBold": 0
          }
        }
      ],
      "mainLabel": {
        "text": "Write permission",
        "isBold": 1
      },
      "subLabel": {
        "text": "Other",
        "isBold": 0
      }
    },
    "4": {
      "tagName": "INPUT",
      "type": "radio",
      "className": "form-check-input",
      "name": "write_group_radio",
      "subInputs": [
        {
          "id": "write_group_radio_allow",
          "value": 1,
          "label": {
            "text": "Allow",
            "className": "form-check-label",
            "isBold": 0
          }
        },
        {
          "id": "write_group_radio_deny",
          "value": 0,
          "label": {
            "text": "Deny",
            "className": "form-check-label",
            "isBold": 0
          }
        }
      ],
      "subLabel": {
        "text": "Group",
        "isBold": 0
      }
    },
    "5": {
      "tagName": "INPUT",
      "type": "radio",
      "className": "form-check-input",
      "name": "write_other_radio",
      "subInputs": [
        {
          "id": "write_other_radio_allow",
          "value": 1,
          "label": {
            "text": "Allow",
            "className": "form-check-label",
            "isBold": 0
          }
        },
        {
          "id": "write_other_radio_deny",
          "value": 0,
          "label": {
            "text": "Deny",
            "className": "form-check-label",
            "isBold": 0
          }
        }
      ],
      "subLabel": {
        "text": "Other",
        "isBold": 0
      }
    },
    "6": {
      "tagName": "INPUT",
      "type": "radio",
      "className": "form-check-input",
      "name": "execute_user_radio",
      "subInputs": [
        {
          "id": "execute_user_radio_allow",
          "value": 1,
          "label": {
            "text": "Allow",
            "className": "form-check-label",
            "isBold": 0
          }
        },
        {
          "id": "execute_user_radio_deny",
          "value": 0,
          "label": {
            "text": "Deny",
            "className": "form-check-label",
            "isBold": 0
          }
        }
      ],
      "mainLabel": {
        "text": "Execute permission",
        "isBold": 1
      },
      "subLabel": {
        "text": "User/Owner",
        "isBold": 0
      }
    },
    "7": {
      "tagName": "INPUT",
      "type": "radio",
      "className": "form-check-input",
      "name": "execute_group_radio",
      "subInputs": [
        {
          "id": "execute_group_radio_allow",
          "value": 1,
          "label": {
            "text": "Allow",
            "className": "form-check-label",
            "isBold": 0
          }
        },
        {
          "id": "execute_group_radio_deny",
          "value": 0,
          "label": {
            "text": "Deny",
            "className": "form-check-label",
            "isBold": 0
          }
        }
      ],
      "subLabel": {
        "text": "Group",
        "isBold": 0
      }
    },
    "8": {
      "tagName": "INPUT",
      "type": "radio",
      "className": "form-check-input",
      "name": "execute_other_radio",
      "subInputs": [
        {
          "id": "execute_other_radio_allow",
          "value": 1,
          "label": {
            "text": "Allow",
            "className": "form-check-label",
            "isBold": 0
          }
        },
        {
          "id": "execute_other_radio_deny",
          "value": 0,
          "label": {
            "text": "Deny",
            "className": "form-check-label",
            "isBold": 0
          }
        }
      ],
      "subLabel": {
        "text": "Other",
        "isBold": 0
      }
    },
    "btn": {
      "tagName": "BUTTON",
      "type": "button",
      "innerHTML": "Calculate",
      "className": "btn btn-primary mr-2",
      "id": "",
      "onclick": "(function(){chmod_calculator()})"
    },
    "clearBtn": {
      "tagName": "BUTTON",
      "type": "button",
      "innerHTML": "Clear",
      "className": "btn btn-secondary",
      "id": "",
      "onclick": "(function(){clearContent()})"
    }
  },
  "charts": {
    "image": {
      "url": "https://www.comentum.com/images/permissions.jpg",
      "id": "chart"
    }
  }
}
