{
  "areas": {
    "input": {
      "inputs_header": "Input",
      "id": "input",
      "col_class": "col-sm-3"
    },
    "display": {
      "inputs_header": "Image",
      "id": "image",
      "col_class": "col-sm-6",
      "body_class": "text-center"
    },
    "output": {
      "inputs_header": "Result",
      "id": "result",
      "col_class": "col-sm-3"
    }
  },
  "attributes": {
    "0": {
      "tagName": "SELECT",
      "type": "select",
      "className": "form-control",
      "id": "style_sel",
      "label": {
        "text": "Pizza Style",
        "isBold": 1
      },
      "innerHTML": [
        {
          "text": "Neapolitan",
          "value": 0
        },
        {
          "text": "American",
          "value": 1
        },
        {
          "text": "Sicilian",
          "value": 2
        }
      ]
    },
    "1": {
      "tagName": "INPUT",
      "type": "text",
      "className": "form-control",
      "id": "num_in",
      "placeholder": "1",
      "label": {
        "text": "Number of Dough balls",
        "isBold": 1
      }
    },
    "2": {
      "tagName": "INPUT",
      "type": "text",
      "className": "form-control",
      "id": "size_in",
      "placeholder": "gerams",
      "label": {
        "text": "Pizza Dough Weight",
        "isBold": 1
      }
    },
    "3": {
      "tagName": "INPUT",
      "type": "text",
      "className": "form-control",
      "id": "water_in",
      "placeholder": "65",
      "label": {
        "text": "Amount of Water (Percent)",
        "isBold": 1
      }
    },
    "btn": {
      "tagName": "BUTTON",
      "type": "button",
      "innerHTML": "Calculate",
      "className": "btn btn-primary mr-2",
      "id": "",
      "onclick": "(function (){pizza_dough_calculator()})"
    },
    "clearBtn": {
      "tagName": "BUTTON",
      "type": "button",
      "innerHTML": "Clear",
      "className": "btn btn-secondary",
      "id": "",
      "onclick": "(function (){clearContent()})"
    }
  },
  "charts": {
    "image": {
      "url": "https://img.taste.com.au/JBQ8zWnO/taste/2016/11/pizza-dough_1980x1320-118409-1.jpg",
      "id": "image"
    }
  }
}
