{
  "areas": {
    "input": {
      "inputs_header": "Input",
      "id": "input",
      "col_class": "col-sm-3"
    },
    "display": {
      "inputs_header": "Plot",
      "id": "draw_area",
      "col_class": "col-sm-6",
      "body_class": "text-center"
    },
    "output": {
      "inputs_header": "Result",
      "id": "result",
      "col_class": "col-sm-3"
    }
  },
  "attributes": {
    "sec_deg_input": {
      "tagName": "INPUT",
      "type": "text",
      "className": "form-control",
      "id": "secDegInput",
      "placeholder": "Enter Second Degree Coefficients...",
      "label": {
        "text": "Second Degree Coefficients",
        "isBold": 1
      }
    },
    "first_deg_input": {
      "tagName": "INPUT",
      "type": "text",
      "className": "form-control",
      "id": "firstDegInput",
      "placeholder": "Enter First Degree Coefficients...",
      "label": {
        "text": "First Degree Coefficients",
        "isBold": 1
      }
    },
    "intercept_input": {
      "tagName": "INPUT",
      "type": "text",
      "className": "form-control",
      "id": "interceptInput",
      "placeholder": "Enter intercept...",
      "label": {
        "text": "Intercept",
        "isBold": 1
      }
    },
    "btn": {
      "tagName": "BUTTON",
      "type": "button",
      "innerHTML": "Calculate",
      "className": "btn btn-primary mr-2",
      "id": "",
      "onclick": "(function f() {second_deg_eq_calculator()})"
    },
    "clearBtn": {
      "tagName": "BUTTON",
      "type": "button",
      "innerHTML": "Clear",
      "className": "btn btn-secondary",
      "id": "",
      "onclick": "(function (){clearContent()})"
    }
  },
  "charts": {
    "plot": {
      "id": "plot",
      "xAxis": [
        -10,
        10
      ],
      "yAxis": [
        -10,
        10
      ],
      "grid": 1,
      "data": [
        {
          "fn": "x^2",
          "derivative": {
            "fn": "x^2",
            "updateOnMouseMove": true
          }
        },
        {
          "points": [],
          "fnType": "points",
          "graphType": "scatter"
        }
      ]
    }
  }
}
