{
  "attributes": {
    "sa_input": {
      "tagName": "INPUT",
      "type": "text",
      "className": "form-control",
      "id": "saInput",
      "placeholder": "",
      "label": {
        "text": "Length of Side a:",
        "isBold": 1
      }
    },
    "sb_input": {
      "tagName": "INPUT",
      "type": "text",
      "className": "form-control",
      "id": "sbInput",
      "placeholder": "",
      "label": {
        "text": "Length of Side b:",
        "isBold": 1
      }
    },
    "sc_input": {
      "tagName": "INPUT",
      "type": "text",
      "className": "form-control",
      "id": "scInput",
      "placeholder": "",
      "label": {
        "text": "Length of Side c:",
        "isBold": 1
      }
    },
    "aa_Input": {
      "tagName": "INPUT",
      "type": "text",
      "className": "form-control",
      "id": "aaInput",
      "placeholder": "",
      "label": {
        "text": "Angle A:",
        "isBold": 1
      },
      "options": {
        "tagName": "SELECT",
        "type": "select",
        "innerHTML": [
          {
            "text": "Degree",
            "value": 57.295778
          },
          {
            "text": "Radian",
            "value": 0.05625
          },
          {
            "text": "Mil",
            "value": 30
          },
          {
            "text": "Sign",
            "value": 0.0002777778
          },
          {
            "text": "Second",
            "value": 0.0166666667
          },
          {
            "text": "Minute",
            "value": 0.0166666667
          },
          {
            "text": "Gon",
            "value": 0.9
          }
        ],
        "className": "form-control",
        "id": "aaTypeSelector"
      }
    },
    "ab_Input": {
      "tagName": "INPUT",
      "type": "text",
      "className": "form-control",
      "id": "abInput",
      "placeholder": "",
      "label": {
        "text": "Angle B:",
        "isBold": 1
      },
      "options": {
        "tagName": "SELECT",
        "type": "select",
        "innerHTML": [
          {
            "text": "Degree",
            "value": 57.295778
          },
          {
            "text": "Radian",
            "value": 0.05625
          },
          {
            "text": "Mil",
            "value": 30
          },
          {
            "text": "Sign",
            "value": 0.0002777778
          },
          {
            "text": "Second",
            "value": 0.0166666667
          },
          {
            "text": "Minute",
            "value": 0.0166666667
          },
          {
            "text": "Gon",
            "value": 0.9
          }
        ],
        "className": "form-control",
        "id": "abTypeSelector"
      }
    },
    "ac_Input": {
      "tagName": "INPUT",
      "type": "text",
      "className": "form-control",
      "id": "acInput",
      "placeholder": "",
      "label": {
        "text": "Angle C:",
        "isBold": 1
      },
      "options": {
        "tagName": "SELECT",
        "type": "select",
        "innerHTML": [
          {
            "text": "Degree",
            "value": 57.295778
          },
          {
            "text": "Radian",
            "value": 0.05625
          },
          {
            "text": "Mil",
            "value": 30
          },
          {
            "text": "Sign",
            "value": 0.0002777778
          },
          {
            "text": "Second",
            "value": 0.0166666667
          },
          {
            "text": "Minute",
            "value": 0.0166666667
          },
          {
            "text": "Gon",
            "value": 0.9
          }
        ],
        "className": "form-control",
        "id": "acTypeSelector"
      }
    },
    "btn": {
      "tagName": "BUTTON",
      "type": "button",
      "innerHTML": "Calculate",
      "className": "btn btn-primary mr-2",
      "id": "",
      "onclick": "(function(){triangle_calculator()})"
    },
    "clearBtn": {
      "tagName": "BUTTON",
      "type": "button",
      "innerHTML": "Clear",
      "className": "btn btn-secondary",
      "id": "",
      "onclick": "(function (){clearContent()})"
    }
  },
  "charts": {
    "image": {
      "url": "https://www.radioworld.com/wp-content/uploads/2019/02/ohms-lawchart_thumb.jpg",
      "id": "chart"
    }
  }
}
